%!PS-Adobe-3.0 EPSF-3.0
%%Creator: (MATLAB, The Mathworks, Inc. Version 9.12.0.1975300 \(R2022a\) Update 3. Operating System: Mac OS X)
%%Title: ./zoom.eps
%%CreationDate: 2022-10-02T08:58:35
%%Pages: (atend)
%%BoundingBox:   196   292   405   530
%%LanguageLevel: 2
%%EndComments
%%BeginProlog
%%BeginResource: procset (Apache XML Graphics Std ProcSet) 1.2 0
%%Version: 1.2 0
%%Copyright: (Copyright 2001-2003,2010 The Apache Software Foundation. License terms: http://www.apache.org/licenses/LICENSE-2.0)
/bd{bind def}bind def
/ld{load def}bd
/GR/grestore ld
/GS/gsave ld
/RM/rmoveto ld
/C/curveto ld
/t/show ld
/L/lineto ld
/ML/setmiterlimit ld
/CT/concat ld
/f/fill ld
/N/newpath ld
/S/stroke ld
/CC/setcmykcolor ld
/A/ashow ld
/cp/closepath ld
/RC/setrgbcolor ld
/LJ/setlinejoin ld
/GC/setgray ld
/LW/setlinewidth ld
/M/moveto ld
/re {4 2 roll M
1 index 0 rlineto
0 exch rlineto
neg 0 rlineto
cp } bd
/_ctm matrix def
/_tm matrix def
/BT { _ctm currentmatrix pop matrix _tm copy pop 0 0 moveto } bd
/ET { _ctm setmatrix } bd
/iTm { _ctm setmatrix _tm concat } bd
/Tm { _tm astore pop iTm 0 0 moveto } bd
/ux 0.0 def
/uy 0.0 def
/F {
  /Tp exch def
  /Tf exch def
  Tf findfont Tp scalefont setfont
  /cf Tf def  /cs Tp def
} bd
/ULS {currentpoint /uy exch def /ux exch def} bd
/ULE {
  /Tcx currentpoint pop def
  gsave
  newpath
  cf findfont cs scalefont dup
  /FontMatrix get 0 get /Ts exch def /FontInfo get dup
  /UnderlinePosition get Ts mul /To exch def
  /UnderlineThickness get Ts mul /Tt exch def
  ux uy To add moveto  Tcx uy To add lineto
  Tt setlinewidth stroke
  grestore
} bd
/OLE {
  /Tcx currentpoint pop def
  gsave
  newpath
  cf findfont cs scalefont dup
  /FontMatrix get 0 get /Ts exch def /FontInfo get dup
  /UnderlinePosition get Ts mul /To exch def
  /UnderlineThickness get Ts mul /Tt exch def
  ux uy To add cs add moveto Tcx uy To add cs add lineto
  Tt setlinewidth stroke
  grestore
} bd
/SOE {
  /Tcx currentpoint pop def
  gsave
  newpath
  cf findfont cs scalefont dup
  /FontMatrix get 0 get /Ts exch def /FontInfo get dup
  /UnderlinePosition get Ts mul /To exch def
  /UnderlineThickness get Ts mul /Tt exch def
  ux uy To add cs 10 mul 26 idiv add moveto Tcx uy To add cs 10 mul 26 idiv add lineto
  Tt setlinewidth stroke
  grestore
} bd
/QT {
/Y22 exch store
/X22 exch store
/Y21 exch store
/X21 exch store
currentpoint
/Y21 load 2 mul add 3 div exch
/X21 load 2 mul add 3 div exch
/X21 load 2 mul /X22 load add 3 div
/Y21 load 2 mul /Y22 load add 3 div
/X22 load /Y22 load curveto
} bd
/SSPD {
dup length /d exch dict def
{
/v exch def
/k exch def
currentpagedevice k known {
/cpdv currentpagedevice k get def
v cpdv ne {
/upd false def
/nullv v type /nulltype eq def
/nullcpdv cpdv type /nulltype eq def
nullv nullcpdv or
{
/upd true def
} {
/sametype v type cpdv type eq def
sametype {
v type /arraytype eq {
/vlen v length def
/cpdvlen cpdv length def
vlen cpdvlen eq {
0 1 vlen 1 sub {
/i exch def
/obj v i get def
/cpdobj cpdv i get def
obj cpdobj ne {
/upd true def
exit
} if
} for
} {
/upd true def
} ifelse
} {
v type /dicttype eq {
v {
/dv exch def
/dk exch def
/cpddv cpdv dk get def
dv cpddv ne {
/upd true def
exit
} if
} forall
} {
/upd true def
} ifelse
} ifelse
} if
} ifelse
upd true eq {
d k v put
} if
} if
} if
} forall
d length 0 gt {
d setpagedevice
} if
} bd
/RE { % /NewFontName [NewEncodingArray] /FontName RE -
  findfont dup length dict begin
  {
    1 index /FID ne
    {def} {pop pop} ifelse
  } forall
  /Encoding exch def
  /FontName 1 index def
  currentdict definefont pop
  end
} bind def
%%EndResource
%%BeginResource: procset (Apache XML Graphics EPS ProcSet) 1.0 0
%%Version: 1.0 0
%%Copyright: (Copyright 2002-2003 The Apache Software Foundation. License terms: http://www.apache.org/licenses/LICENSE-2.0)
/BeginEPSF { %def
/b4_Inc_state save def         % Save state for cleanup
/dict_count countdictstack def % Count objects on dict stack
/op_count count 1 sub def      % Count objects on operand stack
userdict begin                 % Push userdict on dict stack
/showpage { } def              % Redefine showpage, { } = null proc
0 setgray 0 setlinecap         % Prepare graphics state
1 setlinewidth 0 setlinejoin
10 setmiterlimit [ ] 0 setdash newpath
/languagelevel where           % If level not equal to 1 then
{pop languagelevel             % set strokeadjust and
1 ne                           % overprint to their defaults.
{false setstrokeadjust false setoverprint
} if
} if
} bd
/EndEPSF { %def
count op_count sub {pop} repeat            % Clean up stacks
countdictstack dict_count sub {end} repeat
b4_Inc_state restore
} bd
%%EndResource
%FOPBeginFontDict
%%IncludeResource: font Courier-Oblique
%%IncludeResource: font Courier-BoldOblique
%%IncludeResource: font Courier-Bold
%%IncludeResource: font ZapfDingbats
%%IncludeResource: font Symbol
%%IncludeResource: font Helvetica
%%IncludeResource: font Helvetica-Oblique
%%IncludeResource: font Helvetica-Bold
%%IncludeResource: font Helvetica-BoldOblique
%%IncludeResource: font Times-Roman
%%IncludeResource: font Times-Italic
%%IncludeResource: font Times-Bold
%%IncludeResource: font Times-BoldItalic
%%IncludeResource: font Courier
%FOPEndFontDict
%%BeginResource: encoding WinAnsiEncoding
/WinAnsiEncoding [
/.notdef /.notdef /.notdef /.notdef /.notdef
/.notdef /.notdef /.notdef /.notdef /.notdef
/.notdef /.notdef /.notdef /.notdef /.notdef
/.notdef /.notdef /.notdef /.notdef /.notdef
/.notdef /.notdef /.notdef /.notdef /.notdef
/.notdef /.notdef /.notdef /.notdef /.notdef
/.notdef /.notdef /space /exclam /quotedbl
/numbersign /dollar /percent /ampersand /quotesingle
/parenleft /parenright /asterisk /plus /comma
/hyphen /period /slash /zero /one
/two /three /four /five /six
/seven /eight /nine /colon /semicolon
/less /equal /greater /question /at
/A /B /C /D /E
/F /G /H /I /J
/K /L /M /N /O
/P /Q /R /S /T
/U /V /W /X /Y
/Z /bracketleft /backslash /bracketright /asciicircum
/underscore /quoteleft /a /b /c
/d /e /f /g /h
/i /j /k /l /m
/n /o /p /q /r
/s /t /u /v /w
/x /y /z /braceleft /bar
/braceright /asciitilde /bullet /Euro /bullet
/quotesinglbase /florin /quotedblbase /ellipsis /dagger
/daggerdbl /circumflex /perthousand /Scaron /guilsinglleft
/OE /bullet /Zcaron /bullet /bullet
/quoteleft /quoteright /quotedblleft /quotedblright /bullet
/endash /emdash /asciitilde /trademark /scaron
/guilsinglright /oe /bullet /zcaron /Ydieresis
/space /exclamdown /cent /sterling /currency
/yen /brokenbar /section /dieresis /copyright
/ordfeminine /guillemotleft /logicalnot /sfthyphen /registered
/macron /degree /plusminus /twosuperior /threesuperior
/acute /mu /paragraph /middot /cedilla
/onesuperior /ordmasculine /guillemotright /onequarter /onehalf
/threequarters /questiondown /Agrave /Aacute /Acircumflex
/Atilde /Adieresis /Aring /AE /Ccedilla
/Egrave /Eacute /Ecircumflex /Edieresis /Igrave
/Iacute /Icircumflex /Idieresis /Eth /Ntilde
/Ograve /Oacute /Ocircumflex /Otilde /Odieresis
/multiply /Oslash /Ugrave /Uacute /Ucircumflex
/Udieresis /Yacute /Thorn /germandbls /agrave
/aacute /acircumflex /atilde /adieresis /aring
/ae /ccedilla /egrave /eacute /ecircumflex
/edieresis /igrave /iacute /icircumflex /idieresis
/eth /ntilde /ograve /oacute /ocircumflex
/otilde /odieresis /divide /oslash /ugrave
/uacute /ucircumflex /udieresis /yacute /thorn
/ydieresis
] def
%%EndResource
%FOPBeginFontReencode
/Courier-Oblique findfont
dup length dict begin
  {1 index /FID ne {def} {pop pop} ifelse} forall
  /Encoding WinAnsiEncoding def
  currentdict
end
/Courier-Oblique exch definefont pop
/Courier-BoldOblique findfont
dup length dict begin
  {1 index /FID ne {def} {pop pop} ifelse} forall
  /Encoding WinAnsiEncoding def
  currentdict
end
/Courier-BoldOblique exch definefont pop
/Courier-Bold findfont
dup length dict begin
  {1 index /FID ne {def} {pop pop} ifelse} forall
  /Encoding WinAnsiEncoding def
  currentdict
end
/Courier-Bold exch definefont pop
/Helvetica findfont
dup length dict begin
  {1 index /FID ne {def} {pop pop} ifelse} forall
  /Encoding WinAnsiEncoding def
  currentdict
end
/Helvetica exch definefont pop
/Helvetica-Oblique findfont
dup length dict begin
  {1 index /FID ne {def} {pop pop} ifelse} forall
  /Encoding WinAnsiEncoding def
  currentdict
end
/Helvetica-Oblique exch definefont pop
/Helvetica-Bold findfont
dup length dict begin
  {1 index /FID ne {def} {pop pop} ifelse} forall
  /Encoding WinAnsiEncoding def
  currentdict
end
/Helvetica-Bold exch definefont pop
/Helvetica-BoldOblique findfont
dup length dict begin
  {1 index /FID ne {def} {pop pop} ifelse} forall
  /Encoding WinAnsiEncoding def
  currentdict
end
/Helvetica-BoldOblique exch definefont pop
/Times-Roman findfont
dup length dict begin
  {1 index /FID ne {def} {pop pop} ifelse} forall
  /Encoding WinAnsiEncoding def
  currentdict
end
/Times-Roman exch definefont pop
/Times-Italic findfont
dup length dict begin
  {1 index /FID ne {def} {pop pop} ifelse} forall
  /Encoding WinAnsiEncoding def
  currentdict
end
/Times-Italic exch definefont pop
/Times-Bold findfont
dup length dict begin
  {1 index /FID ne {def} {pop pop} ifelse} forall
  /Encoding WinAnsiEncoding def
  currentdict
end
/Times-Bold exch definefont pop
/Times-BoldItalic findfont
dup length dict begin
  {1 index /FID ne {def} {pop pop} ifelse} forall
  /Encoding WinAnsiEncoding def
  currentdict
end
/Times-BoldItalic exch definefont pop
/Courier findfont
dup length dict begin
  {1 index /FID ne {def} {pop pop} ifelse} forall
  /Encoding WinAnsiEncoding def
  currentdict
end
/Courier exch definefont pop
%FOPEndFontReencode
%%EndProlog
%%Page: 1 1
%%PageBoundingBox: 0 0 1057 556
%%BeginPageSetup
N
  196   292 M
  601   292 L
  601   822 L
  196   822 L
cp
clip
[1 0 0 -1 0 556] CT
%%EndPageSetup
GS
1 GC
N
0 0 1057 556 re
f
GR
GS
1 GC
N
0 0 1057 556 re
f
GR
GS
1 GC
N
211.5 250 M
403 250 L
403 28 L
211.5 28 L
cp
f
GR
GS
0.702 0.702 0.902 RC
1 LJ
0.5 LW
N
403.023 185.865 M
211.477 179.569 L
S
GR
GS
0.702 0.702 0.902 RC
1 LJ
0.5 LW
N
403.023 193.789 M
275.995 191.623 L
211.477 192.889 L
S
GR
GS
0.702 0.702 0.902 RC
1 LJ
0.5 LW
N
403.023 200.868 M
317.844 201.625 L
211.477 198.912 L
S
GR
GS
0.702 0.702 0.902 RC
1 LJ
0.5 LW
N
403.023 208.41 M
256.213 206.586 L
211.477 204.787 L
S
GR
GS
0.702 0.702 0.902 RC
1 LJ
0.5 LW
N
403.023 217.905 M
211.477 209.365 L
S
GR
GS
0.702 0.702 0.902 RC
1 LJ
0.5 LW
N
403.023 237.754 M
211.477 227.533 L
S
GR
GS
0.702 0.702 0.902 RC
1 LJ
0.5 LW
N
397.682 250.026 M
211.477 239.764 L
S
GR
GS
0 0 1 RC
1 LJ
0.5 LW
N
211.477 187.629 M
212.685 187.629 L
216.666 187.629 L
220.647 187.629 L
224.627 187.629 L
228.608 187.629 L
232.588 187.629 L
236.569 187.629 L
240.549 187.629 L
244.53 187.629 L
248.51 187.629 L
252.491 187.629 L
256.472 187.629 L
260.452 187.629 L
264.433 187.629 L
268.413 187.629 L
272.394 187.629 L
276.374 187.629 L
280.355 187.629 L
284.335 187.629 L
288.316 187.629 L
292.297 187.629 L
296.277 187.629 L
300.258 187.629 L
304.238 187.629 L
308.219 187.629 L
312.199 187.629 L
316.18 187.629 L
320.16 187.629 L
324.141 187.629 L
328.122 187.629 L
332.102 187.629 L
336.083 187.629 L
340.063 187.629 L
344.044 187.629 L
348.024 187.629 L
352.005 187.629 L
355.985 187.629 L
359.966 187.629 L
363.947 187.629 L
367.927 187.629 L
371.908 187.629 L
375.888 187.629 L
379.869 187.629 L
383.849 187.629 L
387.83 187.629 L
391.81 187.629 L
395.791 187.629 L
399.772 187.629 L
403.023 187.629 L
S
GR
GS
0 0 1 RC
[10 6] 0 setdash
2 LJ
0.5 LW
N
211.477 211.203 M
212.685 211.203 L
216.666 211.203 L
220.647 211.203 L
224.627 211.203 L
228.608 211.203 L
232.588 211.203 L
236.569 211.203 L
240.549 211.203 L
244.53 211.203 L
248.51 211.203 L
252.491 211.203 L
256.472 211.203 L
260.452 211.203 L
264.433 211.203 L
268.413 211.203 L
272.394 211.203 L
276.374 211.203 L
280.355 211.203 L
284.335 211.203 L
288.316 211.203 L
292.297 211.203 L
296.277 211.203 L
300.258 211.203 L
304.238 211.203 L
308.219 211.203 L
312.199 211.203 L
316.18 211.203 L
320.16 211.203 L
324.141 211.203 L
328.122 211.203 L
332.102 211.203 L
336.083 211.203 L
340.063 211.203 L
344.044 211.203 L
348.024 211.203 L
352.005 211.203 L
355.985 211.203 L
359.966 211.203 L
363.947 211.203 L
367.927 211.203 L
371.908 211.203 L
375.888 211.203 L
379.869 211.203 L
383.849 211.203 L
387.83 211.203 L
391.81 211.203 L
395.791 211.203 L
399.772 211.203 L
403.023 211.203 L
S
GR
GS
0 0 0.702 RC
[8 3 2 3] 0 setdash
2 LJ
0.5 LW
N
211.477 203.345 M
212.685 203.345 L
216.666 203.345 L
220.647 203.345 L
224.627 203.345 L
228.608 203.345 L
232.588 203.345 L
236.569 203.345 L
240.549 203.345 L
244.53 203.345 L
248.51 203.345 L
252.491 203.345 L
256.472 203.345 L
260.452 203.345 L
264.433 203.345 L
268.413 203.345 L
272.394 203.345 L
276.374 203.345 L
280.355 203.345 L
284.335 203.345 L
288.316 203.345 L
292.297 203.345 L
296.277 203.345 L
300.258 203.345 L
304.238 203.345 L
308.219 203.345 L
312.199 203.345 L
316.18 203.345 L
320.16 203.345 L
324.141 203.345 L
328.122 203.345 L
332.102 203.345 L
336.083 203.345 L
340.063 203.345 L
344.044 203.345 L
348.024 203.345 L
352.005 203.345 L
355.985 203.345 L
359.966 203.345 L
363.947 203.345 L
367.927 203.345 L
371.908 203.345 L
375.888 203.345 L
379.869 203.345 L
383.849 203.345 L
387.83 203.345 L
391.81 203.345 L
395.791 203.345 L
399.772 203.345 L
403.023 203.345 L
S
GR
GS
0.6 GC
1 LJ
0.5 LW
N
211.477 36.043 M
212.685 36.043 L
216.666 36.043 L
220.647 36.043 L
224.627 36.043 L
228.608 36.043 L
232.588 36.043 L
236.569 36.043 L
240.549 36.043 L
244.53 36.043 L
248.51 36.043 L
252.491 36.043 L
256.472 36.043 L
260.452 36.043 L
264.433 36.043 L
268.413 36.043 L
272.394 36.043 L
276.374 36.043 L
280.355 36.043 L
284.335 36.043 L
288.316 36.043 L
292.297 36.043 L
296.277 36.043 L
300.258 36.043 L
304.238 36.043 L
308.219 36.043 L
312.199 36.043 L
316.18 36.043 L
320.16 36.043 L
324.141 36.043 L
328.122 36.043 L
332.102 36.043 L
336.083 36.043 L
340.063 36.043 L
344.044 36.043 L
348.024 36.043 L
352.005 36.043 L
355.985 36.043 L
359.966 36.043 L
363.947 36.043 L
367.927 36.043 L
371.908 36.043 L
375.888 36.043 L
379.869 36.043 L
383.849 36.043 L
387.83 36.043 L
391.81 36.043 L
395.791 36.043 L
399.772 36.043 L
403.023 36.043 L
S
GR
GS
0 1 0 RC
1 LJ
0.5 LW
N
211.477 48.468 M
212.685 48.201 L
216.666 47.798 L
220.647 47.194 L
224.627 46.693 L
228.608 45.988 L
232.588 45.412 L
236.569 44.745 L
240.549 44.155 L
244.53 43.41 L
248.51 43.02 L
252.491 42.217 L
256.472 41.369 L
260.452 40.24 L
264.433 38.767 L
268.413 37.113 L
272.394 50.405 L
276.374 60.904 L
280.355 73.727 L
284.335 88.573 L
288.316 98.693 L
292.297 114.488 L
296.277 123.221 L
300.258 131.317 L
304.238 137.052 L
308.219 141.136 L
312.199 141.166 L
316.18 135.12 L
320.16 125.149 L
324.141 112.691 L
328.122 75.645 L
332.102 62.387 L
336.083 48.979 L
340.063 36.044 L
344.044 37.818 L
348.024 39.384 L
352.005 43.877 L
355.985 52.408 L
359.966 60.769 L
363.947 67.447 L
367.927 73.013 L
371.908 78.432 L
375.888 83.934 L
379.869 87.747 L
383.849 92.668 L
387.83 97.792 L
391.81 103.863 L
395.791 108.201 L
399.772 112.937 L
403.023 118.04 L
S
GR
GS
1 0 0 RC
1 LJ
2 LW
N
211.477 49.7 M
212.685 49.439 L
216.666 49.1 L
220.647 48.55 L
224.627 48.113 L
228.608 47.449 L
232.588 46.913 L
236.569 46.262 L
240.549 45.677 L
244.53 44.899 L
248.51 44.494 L
252.491 43.612 L
256.472 42.664 L
260.452 41.392 L
264.433 39.731 L
268.413 37.87 L
272.394 52.494 L
276.374 63.877 L
280.355 77.65 L
284.335 93.468 L
288.316 104.168 L
292.297 120.859 L
296.277 130.083 L
300.258 138.669 L
304.238 144.802 L
308.219 149.216 L
312.199 149.367 L
316.18 143.088 L
320.16 132.593 L
324.141 119.355 L
328.122 79.705 L
332.102 65.294 L
336.083 50.666 L
340.063 36.545 L
344.044 38.419 L
348.024 40.038 L
352.005 44.735 L
355.985 53.598 L
359.966 62.159 L
363.947 68.897 L
367.927 74.476 L
371.908 79.935 L
375.888 85.546 L
379.869 89.518 L
383.849 94.733 L
387.83 100.272 L
391.81 106.901 L
395.791 111.838 L
399.772 117.255 L
403.023 122.993 L
S
GR
GS
1 0.749 0 RC
1 LJ
3 LW
N
211.477 49.7 M
212.685 49.439 L
216.666 49.1 L
220.647 48.55 L
224.627 48.113 L
228.608 47.449 L
232.588 46.913 L
236.569 46.262 L
240.549 45.677 L
244.53 44.899 L
248.51 44.494 L
252.491 43.612 L
256.472 42.664 L
260.452 41.392 L
264.433 39.731 L
268.413 37.87 L
272.394 52.494 L
276.374 63.877 L
280.355 77.65 L
S
GR
GS
[1 0 0 1 328.12155 79.70453] CT
1 0.749 0 RC
N
0 -1 M
0.552 -1 1 -0.552 1 0 C
1 0 L
1 0.552 0.552 1 0 1 C
-0.552 1 -1 0.552 -1 0 C
-1 -0.552 -0.552 -1 0 -1 C
cp
0 -4 M
-2.209 -4 -4 -2.209 -4 0 C
-4 2.209 -2.209 4 0 4 C
2.209 4 4 2.209 4 0 C
4 0 L
4 -2.209 2.209 -4 0 -4 C
cp
f
GR
GS
0.502 0 0 RC
1 LJ
2 LW
N
328.122 79.705 M
332.102 65.294 L
336.083 50.666 L
340.063 36.545 L
S
GR
GS
0.502 0 0 RC
1 LJ
2 LW
N
363.947 68.897 M
367.927 74.476 L
371.908 79.935 L
375.888 85.546 L
379.869 89.518 L
383.849 94.733 L
387.83 100.272 L
391.81 106.901 L
395.791 111.838 L
399.772 117.255 L
403.023 122.993 L
S
GR
GS
[1 0 0 1 284.33548 93.46753] CT
0 0.902 0.502 RC
N
2.5 0 M
2.5 1.381 1.381 2.5 0 2.5 C
-1.381 2.5 -2.5 1.381 -2.5 0 C
-2.5 -1.381 -1.381 -2.5 0 -2.5 C
1.381 -2.5 2.5 -1.381 2.5 0 C
cp
f
GR
GS
[1 0 0 1 288.31601 104.16772] CT
0 0.902 0.502 RC
N
/f1671878465{2.5 0 M
2.5 1.381 1.381 2.5 0 2.5 C
-1.381 2.5 -2.5 1.381 -2.5 0 C
-2.5 -1.381 -1.381 -2.5 0 -2.5 C
1.381 -2.5 2.5 -1.381 2.5 0 C
cp}def
f1671878465
f
GR
GS
[1 0 0 1 240.54936 45.67693] CT
N
/f1188474679{0.5 0 M
0.5 0.276 0.276 0.5 0 0.5 C
-0.276 0.5 -0.5 0.276 -0.5 0 C
-0.5 -0.276 -0.276 -0.5 0 -0.5 C
0.276 -0.5 0.5 -0.276 0.5 0 C
cp}def
f1188474679
f
GR
GS
[1 0 0 1 272.3938 52.49412] CT
N
f1188474679
f
GR
GS
[1 0 0 1 280.35492 77.64963] CT
N
f1188474679
f
GR
GS
[1 0 0 1 320.16043 132.59311] CT
N
f1188474679
f
GR
GS
[1 0 0 1 340.0632 36.54462] CT
N
f1188474679
f
GR
GS
[1 0 0 1 355.98547 53.59847] CT
N
f1188474679
f
GR
GS
[1 0 0 1 280.35492 101.2244] CT
/Helvetica 10 F
GS
[1 0 0 1 0 0] CT
0 3.5 moveto 
1 -1 scale
(U) t 
GR
GR
GS
[1 0 0 1 320.16043 140.45135] CT
/Helvetica 10 F
GS
[1 0 0 1 0 0] CT
0 3.5 moveto 
1 -1 scale
(M) t 
GR
GR
GS
[1 0 0 1 340.0632 44.82812] CT
/Helvetica 10 F
GS
[1 0 0 1 0 0] CT
0 3.5 moveto 
1 -1 scale
(I) t 
GR
GR
GS
[1 0 0 1 355.98547 53.59847] CT
/Helvetica 10 F
GS
[1 0 0 1 0 0] CT
0 3.5 moveto 
1 -1 scale
(M) t 
GR
GR
GS
[1 0 0 1 280.35492 69.79137] CT
0 0 1 RC
/Helvetica-Bold 8 F
GS
[1 0 0 1 0 0] CT
0 3 moveto 
1 -1 scale
(H) t 
GR
GR
GS
0.873 GC
[1 3] 0 setdash
2 LJ
0.5 LW
N
239.488 28 M
239.488 250 L
S
GR
GS
0.873 GC
[1 3] 0 setdash
2 LJ
0.5 LW
N
296.808 28 M
296.808 250 L
S
GR
GS
0.873 GC
[1 3] 0 setdash
2 LJ
0.5 LW
N
354.128 28 M
354.128 250 L
S
GR
GS
0.873 GC
[1 3] 0 setdash
2 LJ
0.5 LW
N
403 30.463 M
211.5 30.463 L
S
GR
GS
0.873 GC
[1 3] 0 setdash
2 LJ
0.5 LW
N
403 69.755 M
211.5 69.755 L
S
GR
GS
0.873 GC
[1 3] 0 setdash
2 LJ
0.5 LW
N
403 109.046 M
211.5 109.046 L
S
GR
GS
0.873 GC
[1 3] 0 setdash
2 LJ
0.5 LW
N
403 148.337 M
211.5 148.337 L
S
GR
GS
0.873 GC
[1 3] 0 setdash
2 LJ
0.5 LW
N
403 187.629 M
211.5 187.629 L
S
GR
GS
0.873 GC
[1 3] 0 setdash
2 LJ
0.5 LW
N
403 226.92 M
211.5 226.92 L
S
GR
GS
0.149 GC
2 setlinecap
1 LJ
0.5 LW
N
211.5 250 M
403 250 L
S
GR
GS
0.149 GC
2 setlinecap
1 LJ
0.5 LW
N
211.5 28 M
403 28 L
S
GR
GS
0.149 GC
2 setlinecap
1 LJ
0.5 LW
N
239.488 250 M
239.488 247.78 L
S
GR
GS
0.149 GC
2 setlinecap
1 LJ
0.5 LW
N
296.808 250 M
296.808 247.78 L
S
GR
GS
0.149 GC
2 setlinecap
1 LJ
0.5 LW
N
354.128 250 M
354.128 247.78 L
S
GR
GS
0.149 GC
2 setlinecap
1 LJ
0.5 LW
N
239.488 28 M
239.488 30.22 L
S
GR
GS
0.149 GC
2 setlinecap
1 LJ
0.5 LW
N
296.808 28 M
296.808 30.22 L
S
GR
GS
0.149 GC
2 setlinecap
1 LJ
0.5 LW
N
354.128 28 M
354.128 30.22 L
S
GR
GS
[1 0 0 1 239.48788 252.85001] CT
0.149 GC
/Helvetica 10.5 F
GS
[1 0 0 1 0 0] CT
-13.5 10 moveto 
1 -1 scale
(0.055) t 
GR
GR
GS
[1 0 0 1 296.80786 252.85001] CT
0.149 GC
/Helvetica 10.5 F
GS
[1 0 0 1 0 0] CT
-10.5 10 moveto 
1 -1 scale
(0.06) t 
GR
GR
GS
[1 0 0 1 354.12781 252.85001] CT
0.149 GC
/Helvetica 10.5 F
GS
[1 0 0 1 0 0] CT
-13.5 10 moveto 
1 -1 scale
(0.065) t 
GR
GR
GS
0.149 GC
2 setlinecap
1 LJ
0.5 LW
N
211.5 28 M
211.5 250 L
S
GR
GS
0.149 GC
2 setlinecap
1 LJ
0.5 LW
N
403 28 M
403 250 L
S
GR
GS
0.149 GC
2 setlinecap
1 LJ
0.5 LW
N
211.5 30.463 M
213.72 30.463 L
S
GR
GS
0.149 GC
2 setlinecap
1 LJ
0.5 LW
N
211.5 69.755 M
213.72 69.755 L
S
GR
GS
0.149 GC
2 setlinecap
1 LJ
0.5 LW
N
211.5 109.046 M
213.72 109.046 L
S
GR
GS
0.149 GC
2 setlinecap
1 LJ
0.5 LW
N
211.5 148.337 M
213.72 148.337 L
S
GR
GS
0.149 GC
2 setlinecap
1 LJ
0.5 LW
N
211.5 187.629 M
213.72 187.629 L
S
GR
GS
0.149 GC
2 setlinecap
1 LJ
0.5 LW
N
211.5 226.92 M
213.72 226.92 L
S
GR
GS
0.149 GC
2 setlinecap
1 LJ
0.5 LW
N
403 30.463 M
400.78 30.463 L
S
GR
GS
0.149 GC
2 setlinecap
1 LJ
0.5 LW
N
403 69.755 M
400.78 69.755 L
S
GR
GS
0.149 GC
2 setlinecap
1 LJ
0.5 LW
N
403 109.046 M
400.78 109.046 L
S
GR
GS
0.149 GC
2 setlinecap
1 LJ
0.5 LW
N
403 148.337 M
400.78 148.337 L
S
GR
GS
0.149 GC
2 setlinecap
1 LJ
0.5 LW
N
403 187.629 M
400.78 187.629 L
S
GR
GS
0.149 GC
2 setlinecap
1 LJ
0.5 LW
N
403 226.92 M
400.78 226.92 L
S
GR
GS
[1 0 0 1 208.65001 30.46348] CT
0.149 GC
/Helvetica 10.5 F
GS
[1 0 0 1 0 0] CT
-6 3.5 moveto 
1 -1 scale
(0) t 
GR
GR
GS
[1 0 0 1 208.65001 69.75475] CT
0.149 GC
/Helvetica 10.5 F
GS
[1 0 0 1 0 0] CT
-6 3.5 moveto 
1 -1 scale
(5) t 
GR
GR
GS
[1 0 0 1 208.65001 109.04603] CT
0.149 GC
/Helvetica 10.5 F
GS
[1 0 0 1 0 0] CT
-12 3.5 moveto 
1 -1 scale
(10) t 
GR
GR
GS
[1 0 0 1 208.65001 148.3373] CT
0.149 GC
/Helvetica 10.5 F
GS
[1 0 0 1 0 0] CT
-12 3.5 moveto 
1 -1 scale
(15) t 
GR
GR
GS
[1 0 0 1 208.65001 187.62857] CT
0.149 GC
/Helvetica 10.5 F
GS
[1 0 0 1 0 0] CT
-12 3.5 moveto 
1 -1 scale
(20) t 
GR
GR
GS
[1 0 0 1 208.65001 226.91985] CT
0.149 GC
/Helvetica 10.5 F
GS
[1 0 0 1 0 0] CT
-12 3.5 moveto 
1 -1 scale
(25) t 
GR
GR
%%Trailer
%%Pages: 1
%%EOF
